sim/i2c_tb.vcd
$date
	Wed May 13 13:44:50 2026
$end
$version
	Icarus Verilog
$end
$timescale
	1ps
$end
$scope module i2c_tb $end
$var wire 1 ! scl $end
$var wire 1 " scl_fall $end
$var wire 1 # scl_rise $end
$var wire 1 $ sda $end
$var wire 1 % sda_fall $end
$var wire 1 & sda_rise $end
$var wire 32 ' rdata [31:0] $end
$var parameter 7 ( I2C_ADDR $end
$var parameter 3 ) SS_ADDR_R $end
$var parameter 3 * SS_ADDR_W $end
$var parameter 3 + SS_DATA $end
$var parameter 3 , SS_IDLE $end
$var parameter 3 - SS_TX_BYTE1 $end
$var parameter 3 . SS_TX_BYTE2 $end
$var parameter 8 / TX_BYTE1 $end
$var parameter 8 0 TX_BYTE2 $end
$var reg 2 1 ack_count [1:0] $end
$var reg 32 2 addr [31:0] $end
$var reg 1 3 addr_hit $end
$var reg 4 4 bit_pos [3:0] $end
$var reg 1 5 clk $end
$var reg 7 6 rcvd_addr [6:0] $end
$var reg 8 7 rcvd_data [7:0] $end
$var reg 1 8 rcvd_rw $end
$var reg 32 9 readback [31:0] $end
$var reg 8 : recv_shift [7:0] $end
$var reg 1 ; req $end
$var reg 1 < rst $end
$var reg 1 = scl_s0 $end
$var reg 1 > scl_s1 $end
$var reg 1 ? sda_s0 $end
$var reg 1 @ sda_s1 $end
$var reg 1 A slave_sda_drive $end
$var reg 1 B slave_sda_val $end
$var reg 3 C slave_state [2:0] $end
$var reg 1 D start_seen $end
$var reg 1 E stop_seen $end
$var reg 8 F tx_shift [7:0] $end
$var reg 32 G wdata [31:0] $end
$var reg 1 H we $end
$var integer 32 I error_cnt [31:0] $end
$scope module u_i2c $end
$var wire 32 J addr_i [31:0] $end
$var wire 1 5 clk $end
$var wire 32 K data_i [31:0] $end
$var wire 1 ; req_i $end
$var wire 1 < rst $end
$var wire 1 ! scl $end
$var wire 1 $ sda $end
$var wire 1 H we_i $end
$var wire 1 L timer_done $end
$var wire 1 M is_tx_data $end
$var wire 1 N is_rx_data $end
$var wire 1 O is_dev_addr $end
$var parameter 32 P SCL_DIV $end
$var parameter 5 Q S_ACK_H $end
$var parameter 5 R S_ACK_L $end
$var parameter 5 S S_DONE $end
$var parameter 5 T S_IDLE $end
$var parameter 5 U S_MACK_H $end
$var parameter 5 V S_MACK_L $end
$var parameter 5 W S_NACK_H $end
$var parameter 5 X S_NACK_L $end
$var parameter 5 Y S_RX_H $end
$var parameter 5 Z S_RX_L $end
$var parameter 5 [ S_START_A $end
$var parameter 5 \ S_START_B $end
$var parameter 5 ] S_START_C $end
$var parameter 5 ^ S_STOP_A $end
$var parameter 5 _ S_STOP_B $end
$var parameter 5 ` S_STOP_C $end
$var parameter 5 a S_TX_H $end
$var parameter 5 b S_TX_L $end
$var reg 4 c bit_cnt [3:0] $end
$var reg 2 d buzy [1:0] $end
$var reg 32 e data_o [31:0] $end
$var reg 8 f dev_addr_reg [7:0] $end
$var reg 16 g rx_data_reg [15:0] $end
$var reg 1 h scl_o $end
$var reg 1 i scl_oe $end
$var reg 1 j sda_o $end
$var reg 1 k sda_oe $end
$var reg 1 l sda_sync $end
$var reg 3 m seq_phase [2:0] $end
$var reg 8 n shift_reg [7:0] $end
$var reg 5 o state [4:0] $end
$var reg 16 p timer [15:0] $end
$var reg 8 q tx_data_reg [7:0] $end
$upscope $end
$scope task cpu_read $end
$var reg 32 r taddr [31:0] $end
$var reg 32 s tdata [31:0] $end
$upscope $end
$scope task cpu_write $end
$var reg 32 t taddr [31:0] $end
$var reg 32 u tdata [31:0] $end
$upscope $end
$scope task poll_i2c_done $end
$var reg 32 v result [31:0] $end
$upscope $end
$upscope $end
$enddefinitions $end
$comment Show the parameter values. $end
$dumpall
b100 b
b101 a
b10000 `
b1111 _
b1110 ^
b11 ]
b10 \
b1 [
b1000 Z
b1001 Y
b1100 X
b1101 W
b1010 V
b1011 U
b0 T
b10001 S
b110 R
b111 Q
b100 P
b1011010 0
b10100101 /
b101 .
b100 -
b0 ,
b10 +
b1 *
b11 )
b101000 (
$end
#0
$dumpvars
bx v
bx u
bx t
bx s
bx r
bx q
bx p
bx o
bx n
bx m
xl
xk
xj
xi
xh
bx g
bx f
b0 e
bx d
bx c
0O
0N
0M
xL
b0 K
b0 J
b0 I
0H
b0 G
bx F
xE
xD
bx C
xB
xA
x@
x?
x>
x=
0<
0;
bx :
bx 9
x8
bx 7
bx 6
05
bx 4
x3
b0 2
bx 1
b0 '
x&
x%
x$
x#
x"
x!
$end
#10000
0&
0#
1$
1!
0%
0"
b0 m
b0 d
1l
0k
0i
1j
1h
b0 g
b0 q
b0 f
b0 n
b0 c
0L
b0 p
b0 o
1@
1?
1>
1=
0E
0D
b0 1
0B
0A
b0 F
b0 7
03
08
b0 6
b0 :
b0 4
b0 C
15
#20000
05
#30000
15
#40000
05
#50000
15
#60000
05
#70000
15
#80000
05
#90000
15
#100000
1<
05
#110000
15
#120000
05
#130000
15
#140000
05
b1010000 u
b1110000000000010000000000000000 t
#150000
1O
1;
1H
b1010000 G
b1010000 K
b1110000000000010000000000000000 2
b1110000000000010000000000000000 J
15
#160000
05
#170000
0O
0;
0H
b0 G
b0 K
b0 2
b0 J
b1010000 f
15
#180000
05
#190000
b10101011 u
b1110000000000110000000000000000 t
15
#200000
05
#210000
1M
1;
1H
b10101011 G
b10101011 K
b1110000000000110000000000000000 2
b1110000000000110000000000000000 J
15
#220000
05
#230000
0M
0;
0H
b0 G
b0 K
b0 2
b0 J
b1 d
b1 o
b1010000 n
b10101011 q
15
#240000
05
#250000
1$
1!
1k
1i
b1 p
15
#260000
05
#270000
b10 p
15
#280000
05
#290000
1L
b11 p
15
#300000
05
#310000
b10 o
0L
b0 p
15
#320000
05
#330000
0$
0j
b1 p
15
#340000
05
#350000
1%
0?
b10 p
0l
15
#360000
05
#370000
0%
1L
b11 p
0@
1D
15
#380000
05
#390000
b1 C
b11 o
0L
b0 p
15
#400000
05
#410000
0!
0h
b1 p
15
#420000
05
#430000
1"
0=
b10 p
15
#440000
05
#450000
0"
1L
b11 p
0>
0D
15
#460000
05
#470000
b100 o
0L
b0 p
15
#480000
05
#490000
b1 p
15
#500000
05
#510000
b10 p
15
#520000
05
#530000
1L
b11 p
15
#540000
05
#550000
b101 o
0L
b0 p
15
#560000
05
#570000
1!
1h
b1 p
15
#580000
05
#590000
1#
1=
b10 p
15
#600000
05
#610000
0#
1L
b11 p
1>
b1 4
15
#620000
05
#630000
b100 o
b1 c
b10100000 n
0L
b0 p
15
#640000
05
#650000
1$
0!
1j
0h
b1 p
b1110000000000100000000000000000 r
15
#660000
05
#670000
1"
1&
b1000000000000000000000000000000 '
b1000000000000000000000000000000 e
1N
1?
0=
b10 p
1l
1;
b1110000000000100000000000000000 2
b1110000000000100000000000000000 J
15
#680000
05
#690000
0&
b0 '
b0 e
0N
0"
0;
b0 2
b0 J
b1000000000000000000000000000000 s
1L
b11 p
1@
0>
15
#700000
05
#710000
b101 o
0L
b0 p
b1000000000000000000000000000000 v
15
#720000
05
#730000
1!
1h
b1 p
15
#740000
05
#750000
1#
b1000000000000000000000000000000 '
b1000000000000000000000000000000 e
1N
1=
b10 p
1;
b1110000000000100000000000000000 2
b1110000000000100000000000000000 J
15
#760000
05
#770000
0#
b0 '
b0 e
0N
0;
b0 2
b0 J
1L
b11 p
1>
b10 4
b1 :
15
#780000
05
#790000
b100 o
b10 c
b1000000 n
0L
b0 p
15
#800000
05
#810000
0$
0!
0j
0h
b1 p
15
#820000
05
#830000
1%
1"
b1000000000000000000000000000000 '
b1000000000000000000000000000000 e
1N
0?
0=
b10 p
0l
1;
b1110000000000100000000000000000 2
b1110000000000100000000000000000 J
15
#840000
05
#850000
b0 '
b0 e
0N
0%
0"
0;
b0 2
b0 J
1L
b11 p
0@
0>
15
#860000
05
#870000
b101 o
0L
b0 p
15
#880000
05
#890000
1!
1h
b1 p
15
#900000
05
#910000
1#
b1000000000000000000000000000000 '
b1000000000000000000000000000000 e
1N
1=
b10 p
1;
b1110000000000100000000000000000 2
b1110000000000100000000000000000 J
15
#920000
05
#930000
0#
b0 '
b0 e
0N
0;
b0 2
b0 J
1L
b11 p
1>
b11 4
b10 :
15
#940000
05
#950000
b100 o
b11 c
b10000000 n
0L
b0 p
15
#960000
05
#970000
1$
0!
1j
0h
b1 p
15
#980000
05
#990000
1"
1&
b1000000000000000000000000000000 '
b1000000000000000000000000000000 e
1N
1?
0=
b10 p
1l
1;
b1110000000000100000000000000000 2
b1110000000000100000000000000000 J
15
#1000000
05
#1010000
0&
b0 '
b0 e
0N
0"
0;
b0 2
b0 J
1L
b11 p
1@
0>
15
#1020000
05
#1030000
b101 o
0L
b0 p
15
#1040000
05
#1050000
1!
1h
b1 p
15
#1060000
05
#1070000
1#
b1000000000000000000000000000000 '
b1000000000000000000000000000000 e
1N
1=
b10 p
1;
b1110000000000100000000000000000 2
b1110000000000100000000000000000 J
15
#1080000
05
#1090000
0#
b0 '
b0 e
0N
0;
b0 2
b0 J
1L
b11 p
1>
b100 4
b101 :
15
#1100000
05
#1110000
b100 o
b100 c
b0 n
0L
b0 p
15
#1120000
05
#1130000
0$
0!
0j
0h
b1 p
15
#1140000
05
#1150000
1%
1"
b1000000000000000000000000000000 '
b1000000000000000000000000000000 e
1N
0?
0=
b10 p
0l
1;
b1110000000000100000000000000000 2
b1110000000000100000000000000000 J
15
#1160000
05
#1170000
b0 '
b0 e
0N
0%
0"
0;
b0 2
b0 J
1L
b11 p
0@
0>
15
#1180000
05
#1190000
b101 o
0L
b0 p
15
#1200000
05
#1210000
1!
1h
b1 p
15
#1220000
05
#1230000
1#
b1000000000000000000000000000000 '
b1000000000000000000000000000000 e
1N
1=
b10 p
1;
b1110000000000100000000000000000 2
b1110000000000100000000000000000 J
15
#1240000
05
#1250000
0#
b0 '
b0 e
0N
0;
b0 2
b0 J
1L
b11 p
1>
b101 4
b1010 :
15
#1260000
05
#1270000
b100 o
b101 c
0L
b0 p
15
#1280000
05
#1290000
0!
0h
b1 p
15
#1300000
05
#1310000
1"
b1000000000000000000000000000000 '
b1000000000000000000000000000000 e
1N
0=
b10 p
1;
b1110000000000100000000000000000 2
b1110000000000100000000000000000 J
15
#1320000
05
#1330000
b0 '
b0 e
0N
0"
0;
b0 2
b0 J
1L
b11 p
0>
15
#1340000
05
#1350000
b101 o
0L
b0 p
15
#1360000
05
#1370000
1!
1h
b1 p
15
#1380000
05
#1390000
1#
b1000000000000000000000000000000 '
b1000000000000000000000000000000 e
1N
1=
b10 p
1;
b1110000000000100000000000000000 2
b1110000000000100000000000000000 J
15
#1400000
05
#1410000
0#
b0 '
b0 e
0N
0;
b0 2
b0 J
1L
b11 p
1>
b110 4
b10100 :
15
#1420000
05
#1430000
b100 o
b110 c
0L
b0 p
15
#1440000
05
#1450000
0!
0h
b1 p
15
#1460000
05
#1470000
1"
b1000000000000000000000000000000 '
b1000000000000000000000000000000 e
1N
0=
b10 p
1;
b1110000000000100000000000000000 2
b1110000000000100000000000000000 J
15
#1480000
05
#1490000
b0 '
b0 e
0N
0"
0;
b0 2
b0 J
1L
b11 p
0>
15
#1500000
05
#1510000
b101 o
0L
b0 p
15
#1520000
05
#1530000
1!
1h
b1 p
15
#1540000
05
#1550000
1#
b1000000000000000000000000000000 '
b1000000000000000000000000000000 e
1N
1=
b10 p
1;
b1110000000000100000000000000000 2
b1110000000000100000000000000000 J
15
#1560000
05
#1570000
0#
b0 '
b0 e
0N
0;
b0 2
b0 J
1L
b11 p
1>
b111 4
b101000 :
15
#1580000
05
#1590000
b100 o
b111 c
0L
b0 p
15
#1600000
05
#1610000
0!
0h
b1 p
15
#1620000
05
#1630000
1"
b1000000000000000000000000000000 '
b1000000000000000000000000000000 e
1N
0=
b10 p
1;
b1110000000000100000000000000000 2
b1110000000000100000000000000000 J
15
#1640000
05
#1650000
b0 '
b0 e
0N
0"
0;
b0 2
b0 J
1L
b11 p
0>
15
#1660000
05
#1670000
b101 o
0L
b0 p
15
#1680000
05
#1690000
1!
1h
b1 p
15
#1700000
05
#1710000
1#
b1000000000000000000000000000000 '
b1000000000000000000000000000000 e
1N
1=
b10 p
1;
b1110000000000100000000000000000 2
b1110000000000100000000000000000 J
15
#1720000
05
#1730000
0#
b0 '
b0 e
0N
0;
b0 2
b0 J
1L
b11 p
1>
b1000 4
b1010000 :
15
#1740000
05
#1750000
b0 c
b110 o
0L
b0 p
15
#1760000
05
#1770000
0!
1$
0h
0k
b1 p
15
#1780000
05
#1790000
1"
1&
b1000000000000000000000000000000 '
b1000000000000000000000000000000 e
1N
1?
0=
b10 p
1l
1;
b1110000000000100000000000000000 2
b1110000000000100000000000000000 J
15
#1800000
05
#1810000
0&
b0 '
b0 e
0N
0"
0;
b0 2
b0 J
1L
b11 p
1@
0>
15
#1820000
05
#1830000
b111 o
0L
b0 p
15
#1840000
05
#1850000
1!
1h
b1 p
15
#1860000
05
#1870000
1#
b1000000000000000000000000000000 '
b1000000000000000000000000000000 e
1N
1=
b10 p
1;
b1110000000000100000000000000000 2
b1110000000000100000000000000000 J
15
#1880000
05
#1890000
0#
b0 '
b0 e
0N
0;
b0 2
b0 J
1L
b11 p
1>
b0 4
b10 C
13
b101000 6
15
#1900000
05
#1910000
b100 o
b10101011 n
b1 m
0L
b0 p
15
#1920000
05
#1930000
0!
1$
1j
0h
1k
b1 p
15
#1940000
05
#1950000
1"
b1000000000000000000000000000000 '
b1000000000000000000000000000000 e
1N
0=
b10 p
1;
b1110000000000100000000000000000 2
b1110000000000100000000000000000 J
15
#1960000
05
#1970000
b0 '
b0 e
0N
0"
0;
b0 2
b0 J
1L
b11 p
0>
15
#1980000
05
#1990000
b101 o
0L
b0 p
15
#2000000
05
#2010000
1!
1h
b1 p
15
#2020000
05
#2030000
1#
b1000000000000000000000000000000 '
b1000000000000000000000000000000 e
1N
1=
b10 p
1;
b1110000000000100000000000000000 2
b1110000000000100000000000000000 J
15
#2040000
05
#2050000
0#
b0 '
b0 e
0N
0;
b0 2
b0 J
1L
b11 p
1>
b1 4
b10100001 :
15
#2060000
05
#2070000
b100 o
b1 c
b1010110 n
0L
b0 p
15
#2080000
05
#2090000
0$
0!
0j
0h
b1 p
15
#2100000
05
#2110000
1%
1"
b1000000000000000000000000000000 '
b1000000000000000000000000000000 e
1N
0?
0=
b10 p
0l
1;
b1110000000000100000000000000000 2
b1110000000000100000000000000000 J
15
#2120000
05
#2130000
b0 '
b0 e
0N
0%
0"
0;
b0 2
b0 J
1L
b11 p
0@
0>
15
#2140000
05
#2150000
b101 o
0L
b0 p
15
#2160000
05
#2170000
1!
1h
b1 p
15
#2180000
05
#2190000
1#
b1000000000000000000000000000000 '
b1000000000000000000000000000000 e
1N
1=
b10 p
1;
b1110000000000100000000000000000 2
b1110000000000100000000000000000 J
15
#2200000
05
#2210000
0#
b0 '
b0 e
0N
0;
b0 2
b0 J
1L
b11 p
1>
b10 4
b1000010 :
15
#2220000
05
#2230000
b100 o
b10 c
b10101100 n
0L
b0 p
15
#2240000
05
#2250000
1$
0!
1j
0h
b1 p
15
#2260000
05
#2270000
1"
1&
b1000000000000000000000000000000 '
b1000000000000000000000000000000 e
1N
1?
0=
b10 p
1l
1;
b1110000000000100000000000000000 2
b1110000000000100000000000000000 J
15
#2280000
05
#2290000
0&
b0 '
b0 e
0N
0"
0;
b0 2
b0 J
1L
b11 p
1@
0>
15
#2300000
05
#2310000
b101 o
0L
b0 p
15
#2320000
05
#2330000
1!
1h
b1 p
15
#2340000
05
#2350000
1#
b1000000000000000000000000000000 '
b1000000000000000000000000000000 e
1N
1=
b10 p
1;
b1110000000000100000000000000000 2
b1110000000000100000000000000000 J
15
#2360000
05
#2370000
0#
b0 '
b0 e
0N
0;
b0 2
b0 J
1L
b11 p
1>
b11 4
b10000101 :
15
#2380000
05
#2390000
b100 o
b11 c
b1011000 n
0L
b0 p
15
#2400000
05
#2410000
0$
0!
0j
0h
b1 p
15
#2420000
05
#2430000
1%
1"
b1000000000000000000000000000000 '
b1000000000000000000000000000000 e
1N
0?
0=
b10 p
0l
1;
b1110000000000100000000000000000 2
b1110000000000100000000000000000 J
15
#2440000
05
#2450000
b0 '
b0 e
0N
0%
0"
0;
b0 2
b0 J
1L
b11 p
0@
0>
15
#2460000
05
#2470000
b101 o
0L
b0 p
15
#2480000
05
#2490000
1!
1h
b1 p
15
#2500000
05
#2510000
1#
b1000000000000000000000000000000 '
b1000000000000000000000000000000 e
1N
1=
b10 p
1;
b1110000000000100000000000000000 2
b1110000000000100000000000000000 J
15
#2520000
05
#2530000
0#
b0 '
b0 e
0N
0;
b0 2
b0 J
1L
b11 p
1>
b100 4
b1010 :
15
#2540000
05
#2550000
b100 o
b100 c
b10110000 n
0L
b0 p
15
#2560000
05
#2570000
1$
0!
1j
0h
b1 p
15
#2580000
05
#2590000
1"
1&
b1000000000000000000000000000000 '
b1000000000000000000000000000000 e
1N
1?
0=
b10 p
1l
1;
b1110000000000100000000000000000 2
b1110000000000100000000000000000 J
15
#2600000
05
#2610000
0&
b0 '
b0 e
0N
0"
0;
b0 2
b0 J
1L
b11 p
1@
0>
15
#2620000
05
#2630000
b101 o
0L
b0 p
15
#2640000
05
#2650000
1!
1h
b1 p
15
#2660000
05
#2670000
1#
b1000000000000000000000000000000 '
b1000000000000000000000000000000 e
1N
1=
b10 p
1;
b1110000000000100000000000000000 2
b1110000000000100000000000000000 J
15
#2680000
05
#2690000
0#
b0 '
b0 e
0N
0;
b0 2
b0 J
1L
b11 p
1>
b101 4
b10101 :
15
#2700000
05
#2710000
b100 o
b101 c
b1100000 n
0L
b0 p
15
#2720000
05
#2730000
0$
0!
0j
0h
b1 p
15
#2740000
05
#2750000
1%
1"
b1000000000000000000000000000000 '
b1000000000000000000000000000000 e
1N
0?
0=
b10 p
0l
1;
b1110000000000100000000000000000 2
b1110000000000100000000000000000 J
15
#2760000
05
#2770000
b0 '
b0 e
0N
0%
0"
0;
b0 2
b0 J
1L
b11 p
0@
0>
15
#2780000
05
#2790000
b101 o
0L
b0 p
15
#2800000
05
#2810000
1!
1h
b1 p
15
#2820000
05
#2830000
1#
b1000000000000000000000000000000 '
b1000000000000000000000000000000 e
1N
1=
b10 p
1;
b1110000000000100000000000000000 2
b1110000000000100000000000000000 J
15
#2840000
05
#2850000
0#
b0 '
b0 e
0N
0;
b0 2
b0 J
1L
b11 p
1>
b110 4
b101010 :
15
#2860000
05
#2870000
b100 o
b110 c
b11000000 n
0L
b0 p
15
#2880000
05
#2890000
1$
0!
1j
0h
b1 p
15
#2900000
05
#2910000
1"
1&
b1000000000000000000000000000000 '
b1000000000000000000000000000000 e
1N
1?
0=
b10 p
1l
1;
b1110000000000100000000000000000 2
b1110000000000100000000000000000 J
15
#2920000
05
#2930000
0&
b0 '
b0 e
0N
0"
0;
b0 2
b0 J
1L
b11 p
1@
0>
15
#2940000
05
#2950000
b101 o
0L
b0 p
15
#2960000
05
#2970000
1!
1h
b1 p
15
#2980000
05
#2990000
1#
b1000000000000000000000000000000 '
b1000000000000000000000000000000 e
1N
1=
b10 p
1;
b1110000000000100000000000000000 2
b1110000000000100000000000000000 J
15
#3000000
05
#3010000
0#
b0 '
b0 e
0N
0;
b0 2
b0 J
1L
b11 p
1>
b111 4
b1010101 :
15
#3020000
05
#3030000
b100 o
b111 c
b10000000 n
0L
b0 p
15
#3040000
05
#3050000
0!
0h
b1 p
15
#3060000
05
#3070000
1"
b1000000000000000000000000000000 '
b1000000000000000000000000000000 e
1N
0=
b10 p
1;
b1110000000000100000000000000000 2
b1110000000000100000000000000000 J
15
#3080000
05
#3090000
b0 '
b0 e
0N
0"
0;
b0 2
b0 J
1L
b11 p
0>
15
#3100000
05
#3110000
b101 o
0L
b0 p
15
#3120000
05
#3130000
1!
1h
b1 p
15
#3140000
05
#3150000
1#
b1000000000000000000000000000000 '
b1000000000000000000000000000000 e
1N
1=
b10 p
1;
b1110000000000100000000000000000 2
b1110000000000100000000000000000 J
15
#3160000
05
#3170000
0#
b0 '
b0 e
0N
0;
b0 2
b0 J
1L
b11 p
1>
b1000 4
b10101011 :
15
#3180000
05
#3190000
b0 c
b110 o
b0 n
0L
b0 p
15
#3200000
05
#3210000
0!
1$
0h
0k
b1 p
15
#3220000
05
#3230000
1"
b1000000000000000000000000000000 '
b1000000000000000000000000000000 e
1N
0=
b10 p
1;
b1110000000000100000000000000000 2
b1110000000000100000000000000000 J
15
#3240000
05
#3250000
b0 '
b0 e
0N
0"
0$
0;
b0 2
b0 J
1L
b11 p
0>
1A
15
#3260000
05
#3270000
1%
0?
b111 o
0L
b0 p
0l
15
#3280000
05
#3290000
1!
0%
1h
b1 p
0@
15
#3300000
05
#3310000
1#
b1000000000000000000000000000000 '
b1000000000000000000000000000000 e
1N
1=
b10 p
1;
b1110000000000100000000000000000 2
b1110000000000100000000000000000 J
15
#3320000
05
#3330000
0#
b0 '
b0 e
0N
0;
b0 2
b0 J
1L
b11 p
1>
b0 4
03
b11 C
b10101011 7
15
#3340000
05
#3350000
b100 o
b1010001 n
b10 m
0L
b0 p
15
#3360000
05
#3370000
0!
0j
0h
1k
b1 p
15
#3380000
05
#3390000
1"
b1000000000000000000000000000000 '
b1000000000000000000000000000000 e
1N
0=
b10 p
1;
b1110000000000100000000000000000 2
b1110000000000100000000000000000 J
15
#3400000
05
#3410000
b0 '
b0 e
0N
0"
0;
b0 2
b0 J
1L
b11 p
0>
0A
15
#3420000
05
#3430000
b101 o
0L
b0 p
15
#3440000
05
#3450000
1!
1h
b1 p
15
#3460000
05
#3470000
1#
b1000000000000000000000000000000 '
b1000000000000000000000000000000 e
1N
1=
b10 p
1;
b1110000000000100000000000000000 2
b1110000000000100000000000000000 J
15
#3480000
05
#3490000
0#
b0 '
b0 e
0N
0;
b0 2
b0 J
1L
b11 p
1>
b1 4
b1010110 :
15
#3500000
05
#3510000
b100 o
b1 c
b10100010 n
0L
b0 p
15
#3520000
05
#3530000
1$
0!
1j
0h
b1 p
15
#3540000
05
#3550000
1"
1&
b1000000000000000000000000000000 '
b1000000000000000000000000000000 e
1N
1?
0=
b10 p
1l
1;
b1110000000000100000000000000000 2
b1110000000000100000000000000000 J
15
#3560000
05
#3570000
0&
b0 '
b0 e
0N
0"
0;
b0 2
b0 J
1L
b11 p
1@
0>
15
#3580000
05
#3590000
b101 o
0L
b0 p
15
#3600000
05
#3610000
1!
1h
b1 p
15
#3620000
05
#3630000
1#
b1000000000000000000000000000000 '
b1000000000000000000000000000000 e
1N
1=
b10 p
1;
b1110000000000100000000000000000 2
b1110000000000100000000000000000 J
15
#3640000
05
#3650000
0#
b0 '
b0 e
0N
0;
b0 2
b0 J
1L
b11 p
1>
b10 4
b10101101 :
15
#3660000
05
#3670000
b100 o
b10 c
b1000100 n
0L
b0 p
15
#3680000
05
#3690000
0$
0!
0j
0h
b1 p
15
#3700000
05
#3710000
1%
1"
b1000000000000000000000000000000 '
b1000000000000000000000000000000 e
1N
0?
0=
b10 p
0l
1;
b1110000000000100000000000000000 2
b1110000000000100000000000000000 J
15
#3720000
05
#3730000
b0 '
b0 e
0N
0%
0"
0;
b0 2
b0 J
1L
b11 p
0@
0>
15
#3740000
05
#3750000
b101 o
0L
b0 p
15
#3760000
05
#3770000
1!
1h
b1 p
15
#3780000
05
#3790000
1#
b1000000000000000000000000000000 '
b1000000000000000000000000000000 e
1N
1=
b10 p
1;
b1110000000000100000000000000000 2
b1110000000000100000000000000000 J
15
#3800000
05
#3810000
0#
b0 '
b0 e
0N
0;
b0 2
b0 J
1L
b11 p
1>
b11 4
b1011010 :
15
#3820000
05
#3830000
b100 o
b11 c
b10001000 n
0L
b0 p
15
#3840000
05
#3850000
1$
0!
1j
0h
b1 p
15
#3860000
05
#3870000
1"
1&
b1000000000000000000000000000000 '
b1000000000000000000000000000000 e
1N
1?
0=
b10 p
1l
1;
b1110000000000100000000000000000 2
b1110000000000100000000000000000 J
15
#3880000
05
#3890000
0&
b0 '
b0 e
0N
0"
0;
b0 2
b0 J
1L
b11 p
1@
0>
15
#3900000
05
#3910000
b101 o
0L
b0 p
15
#3920000
05
#3930000
1!
1h
b1 p
15
#3940000
05
#3950000
1#
b1000000000000000000000000000000 '
b1000000000000000000000000000000 e
1N
1=
b10 p
1;
b1110000000000100000000000000000 2
b1110000000000100000000000000000 J
15
#3960000
05
#3970000
0#
b0 '
b0 e
0N
0;
b0 2
b0 J
1L
b11 p
1>
b100 4
b10110101 :
15
#3980000
05
#3990000
b100 o
b100 c
b10000 n
0L
b0 p
15
#4000000
05
#4010000
0$
0!
0j
0h
b1 p
15
#4020000
05
#4030000
1%
1"
b1000000000000000000000000000000 '
b1000000000000000000000000000000 e
1N
0?
0=
b10 p
0l
1;
b1110000000000100000000000000000 2
b1110000000000100000000000000000 J
15
#4040000
05
#4050000
b0 '
b0 e
0N
0%
0"
0;
b0 2
b0 J
1L
b11 p
0@
0>
15
#4060000
05
#4070000
b101 o
0L
b0 p
15
#4080000
05
#4090000
1!
1h
b1 p
15
#4100000
05
#4110000
1#
b1000000000000000000000000000000 '
b1000000000000000000000000000000 e
1N
1=
b10 p
1;
b1110000000000100000000000000000 2
b1110000000000100000000000000000 J
15
#4120000
05
#4130000
0#
b0 '
b0 e
0N
0;
b0 2
b0 J
1L
b11 p
1>
b101 4
b1101010 :
15
#4140000
05
#4150000
b100 o
b101 c
b100000 n
0L
b0 p
15
#4160000
05
#4170000
0!
0h
b1 p
15
#4180000
05
#4190000
1"
b1000000000000000000000000000000 '
b1000000000000000000000000000000 e
1N
0=
b10 p
1;
b1110000000000100000000000000000 2
b1110000000000100000000000000000 J
15
#4200000
05
#4210000
b0 '
b0 e
0N
0"
0;
b0 2
b0 J
1L
b11 p
0>
15
#4220000
05
#4230000
b101 o
0L
b0 p
15
#4240000
05
#4250000
1!
1h
b1 p
15
#4260000
05
#4270000
1#
b1000000000000000000000000000000 '
b1000000000000000000000000000000 e
1N
1=
b10 p
1;
b1110000000000100000000000000000 2
b1110000000000100000000000000000 J
15
#4280000
05
#4290000
0#
b0 '
b0 e
0N
0;
b0 2
b0 J
1L
b11 p
1>
b110 4
b11010100 :
15
#4300000
05
#4310000
b100 o
b110 c
b1000000 n
0L
b0 p
15
#4320000
05
#4330000
0!
0h
b1 p
15
#4340000
05
#4350000
1"
b1000000000000000000000000000000 '
b1000000000000000000000000000000 e
1N
0=
b10 p
1;
b1110000000000100000000000000000 2
b1110000000000100000000000000000 J
15
#4360000
05
#4370000
b0 '
b0 e
0N
0"
0;
b0 2
b0 J
1L
b11 p
0>
15
#4380000
05
#4390000
b101 o
0L
b0 p
15
#4400000
05
#4410000
1!
1h
b1 p
15
#4420000
05
#4430000
1#
b1000000000000000000000000000000 '
b1000000000000000000000000000000 e
1N
1=
b10 p
1;
b1110000000000100000000000000000 2
b1110000000000100000000000000000 J
15
#4440000
05
#4450000
0#
b0 '
b0 e
0N
0;
b0 2
b0 J
1L
b11 p
1>
b111 4
b10101000 :
15
#4460000
05
#4470000
b100 o
b111 c
b10000000 n
0L
b0 p
15
#4480000
05
#4490000
1$
0!
1j
0h
b1 p
15
#4500000
05
#4510000
1"
1&
b1000000000000000000000000000000 '
b1000000000000000000000000000000 e
1N
1?
0=
b10 p
1l
1;
b1110000000000100000000000000000 2
b1110000000000100000000000000000 J
15
#4520000
05
#4530000
0&
b0 '
b0 e
0N
0"
0;
b0 2
b0 J
1L
b11 p
1@
0>
15
#4540000
05
#4550000
b101 o
0L
b0 p
15
#4560000
05
#4570000
1!
1h
b1 p
15
#4580000
05
#4590000
1#
b1000000000000000000000000000000 '
b1000000000000000000000000000000 e
1N
1=
b10 p
1;
b1110000000000100000000000000000 2
b1110000000000100000000000000000 J
15
#4600000
05
#4610000
0#
b0 '
b0 e
0N
0;
b0 2
b0 J
1L
b11 p
1>
b1000 4
b1010001 :
15
#4620000
05
#4630000
b0 c
b110 o
b0 n
0L
b0 p
15
#4640000
05
#4650000
0!
1$
0h
0k
b1 p
15
#4660000
05
#4670000
1"
b1000000000000000000000000000000 '
b1000000000000000000000000000000 e
1N
0=
b10 p
1;
b1110000000000100000000000000000 2
b1110000000000100000000000000000 J
15
#4680000
05
#4690000
b0 '
b0 e
0N
0"
0;
b0 2
b0 J
1L
b11 p
0>
15
#4700000
05
#4710000
b111 o
0L
b0 p
15
#4720000
05
#4730000
1!
1h
b1 p
15
#4740000
05
#4750000
1#
b1000000000000000000000000000000 '
b1000000000000000000000000000000 e
1N
1=
b10 p
1;
b1110000000000100000000000000000 2
b1110000000000100000000000000000 J
15
#4760000
05
#4770000
0#
b0 '
b0 e
0N
0;
b0 2
b0 J
1L
b11 p
1>
b0 4
b10100101 F
b100 C
13
18
15
#4780000
05
#4790000
b1000 o
b11 m
0L
b0 p
15
#4800000
05
#4810000
0!
0h
b1 p
15
#4820000
05
#4830000
1"
b1000000000000000000000000000000 '
b1000000000000000000000000000000 e
1N
0=
b10 p
1;
b1110000000000100000000000000000 2
b1110000000000100000000000000000 J
15
#4840000
05
#4850000
b0 '
b0 e
0N
0"
1$
0;
b0 2
b0 J
1L
b11 p
0>
b1001010 F
1B
1A
15
#4860000
05
#4870000
b1001 o
0L
b0 p
15
#4880000
05
#4890000
1!
1h
b1 p
15
#4900000
05
#4910000
1#
b1000000000000000000000000000000 '
b1000000000000000000000000000000 e
1N
1=
b10 p
1;
b1110000000000100000000000000000 2
b1110000000000100000000000000000 J
15
#4920000
05
#4930000
0#
b0 '
b0 e
0N
0;
b0 2
b0 J
b1 n
1L
b11 p
1>
b1 4
15
#4940000
05
#4950000
b1000 o
b1 c
0L
b0 p
15
#4960000
05
#4970000
0!
0h
b1 p
15
#4980000
05
